…
```r
top_50_res_name <- cleaned_data %>% 
  select(res_name) %>% 
  group_by(res_name) %>% 
  count() %>% 
  arrange(desc(n)) %>%
  head(50)

top_50_res_name
```

```
## # A tibble: 50 x 2
## # Groups:   res_name [50]
##    res_name     n
##    <chr>    <int>
##  1 SO4        116
##  2 HEM         95
##  3 GOL         64
##  4 NAG         54
##  5 ZN          40
##  6 MLY         32
##  7 MG          30
##  8 CD          25
##  9 K           24
## 10 CA          21
## # ... with 40 more rows
```
…
